Id,y
45324,4
45325,1
45326,3
45327,4
45328,0
45329,2
45330,3
45331,2
45332,3
45333,3
45334,0
45335,1
45336,3
45337,3
45338,0
45339,3
45340,3
45341,2
45342,1
45343,3
45344,0
45345,1
45346,1
45347,2
45348,0
45349,2
45350,4
45351,1
45352,1
45353,3
45354,1
45355,3
45356,4
45357,3
45358,4
45359,2
45360,3
45361,4
45362,0
45363,3
45364,1
45365,2
45366,1
45367,4
45368,1
45369,1
45370,1
45371,3
45372,2
45373,3
45374,2
45375,3
45376,3
45377,3
45378,1
45379,0
45380,3
45381,3
45382,3
45383,1
45384,1
45385,0
45386,1
45387,3
45388,1
45389,1
45390,1
45391,0
45392,3
45393,0
45394,3
45395,3
45396,3
45397,3
45398,3
45399,1
45400,1
45401,2
45402,3
45403,3
45404,4
45405,3
45406,0
45407,1
45408,0
45409,3
45410,1
45411,3
45412,3
45413,2
45414,2
45415,2
45416,3
45417,3
45418,3
45419,3
45420,0
45421,2
45422,3
45423,1
45424,1
45425,0
45426,1
45427,4
45428,3
45429,1
45430,3
45431,4
45432,2
45433,1
45434,1
45435,1
45436,0
45437,3
45438,0
45439,2
45440,2
45441,1
45442,1
45443,1
45444,1
45445,3
45446,1
45447,3
45448,4
45449,2
45450,0
45451,1
45452,1
45453,1
45454,1
45455,3
45456,0
45457,1
45458,3
45459,1
45460,0
45461,2
45462,4
45463,1
45464,1
45465,3
45466,4
45467,3
45468,0
45469,1
45470,3
45471,4
45472,1
45473,1
45474,4
45475,2
45476,3
45477,4
45478,2
45479,2
45480,3
45481,0
45482,1
45483,1
45484,2
45485,3
45486,1
45487,2
45488,2
45489,2
45490,2
45491,4
45492,1
45493,2
45494,3
45495,3
45496,1
45497,4
45498,4
45499,3
45500,3
45501,3
45502,4
45503,0
45504,3
45505,2
45506,3
45507,3
45508,3
45509,1
45510,1
45511,3
45512,3
45513,1
45514,1
45515,0
45516,1
45517,1
45518,3
45519,3
45520,4
45521,0
45522,1
45523,4
45524,1
45525,1
45526,4
45527,2
45528,1
45529,0
45530,1
45531,1
45532,3
45533,1
45534,0
45535,3
45536,2
45537,2
45538,0
45539,1
45540,0
45541,3
45542,1
45543,2
45544,2
45545,4
45546,1
45547,3
45548,1
45549,4
45550,1
45551,1
45552,4
45553,1
45554,1
45555,3
45556,3
45557,3
45558,1
45559,0
45560,2
45561,1
45562,3
45563,1
45564,1
45565,2
45566,3
45567,3
45568,1
45569,0
45570,0
45571,3
45572,1
45573,1
45574,3
45575,1
45576,1
45577,3
45578,0
45579,0
45580,0
45581,1
45582,4
45583,2
45584,4
45585,3
45586,3
45587,3
45588,0
45589,4
45590,3
45591,3
45592,2
45593,2
45594,2
45595,1
45596,1
45597,4
45598,2
45599,3
45600,2
45601,1
45602,1
45603,1
45604,1
45605,1
45606,1
45607,1
45608,3
45609,2
45610,2
45611,3
45612,4
45613,3
45614,1
45615,1
45616,2
45617,1
45618,1
45619,0
45620,2
45621,3
45622,2
45623,1
45624,3
45625,1
45626,1
45627,3
45628,2
45629,1
45630,3
45631,3
45632,1
45633,2
45634,2
45635,0
45636,1
45637,3
45638,1
45639,1
45640,0
45641,2
45642,2
45643,0
45644,1
45645,1
45646,2
45647,1
45648,1
45649,3
45650,3
45651,2
45652,0
45653,0
45654,3
45655,3
45656,3
45657,1
45658,4
45659,1
45660,1
45661,3
45662,3
45663,1
45664,3
45665,2
45666,1
45667,3
45668,3
45669,2
45670,4
45671,1
45672,1
45673,3
45674,3
45675,2
45676,3
45677,3
45678,1
45679,2
45680,3
45681,2
45682,3
45683,2
45684,1
45685,1
45686,1
45687,1
45688,2
45689,2
45690,3
45691,3
45692,2
45693,1
45694,3
45695,1
45696,0
45697,1
45698,2
45699,2
45700,1
45701,3
45702,3
45703,2
45704,1
45705,3
45706,2
45707,1
45708,4
45709,0
45710,0
45711,1
45712,2
45713,0
45714,2
45715,3
45716,1
45717,3
45718,1
45719,2
45720,4
45721,4
45722,1
45723,0
45724,0
45725,0
45726,2
45727,3
45728,1
45729,2
45730,4
45731,4
45732,3
45733,2
45734,3
45735,2
45736,2
45737,0
45738,3
45739,1
45740,0
45741,1
45742,3
45743,3
45744,3
45745,2
45746,3
45747,4
45748,2
45749,1
45750,1
45751,1
45752,4
45753,1
45754,1
45755,1
45756,1
45757,3
45758,1
45759,2
45760,4
45761,1
45762,3
45763,2
45764,3
45765,4
45766,1
45767,1
45768,1
45769,2
45770,0
45771,0
45772,3
45773,0
45774,0
45775,1
45776,3
45777,0
45778,3
45779,3
45780,4
45781,3
45782,1
45783,1
45784,4
45785,0
45786,4
45787,3
45788,3
45789,1
45790,3
45791,1
45792,3
45793,2
45794,3
45795,0
45796,2
45797,3
45798,3
45799,1
45800,0
45801,3
45802,3
45803,0
45804,2
45805,3
45806,3
45807,1
45808,1
45809,4
45810,3
45811,1
45812,3
45813,2
45814,1
45815,1
45816,3
45817,1
45818,1
45819,1
45820,2
45821,4
45822,1
45823,1
45824,2
45825,3
45826,0
45827,2
45828,3
45829,0
45830,3
45831,1
45832,1
45833,1
45834,2
45835,1
45836,0
45837,1
45838,3
45839,2
45840,1
45841,1
45842,3
45843,3
45844,0
45845,3
45846,3
45847,2
45848,1
45849,1
45850,3
45851,4
45852,2
45853,2
45854,1
45855,1
45856,3
45857,4
45858,3
45859,2
45860,1
45861,1
45862,1
45863,2
45864,2
45865,0
45866,0
45867,0
45868,3
45869,2
45870,2
45871,1
45872,1
45873,1
45874,1
45875,3
45876,1
45877,0
45878,4
45879,1
45880,4
45881,4
45882,3
45883,1
45884,2
45885,2
45886,3
45887,3
45888,1
45889,1
45890,3
45891,4
45892,1
45893,1
45894,1
45895,3
45896,4
45897,2
45898,1
45899,2
45900,2
45901,4
45902,1
45903,1
45904,0
45905,1
45906,3
45907,3
45908,4
45909,0
45910,2
45911,2
45912,1
45913,1
45914,3
45915,1
45916,1
45917,2
45918,3
45919,1
45920,2
45921,1
45922,1
45923,0
45924,1
45925,1
45926,1
45927,3
45928,3
45929,1
45930,0
45931,4
45932,2
45933,1
45934,3
45935,3
45936,4
45937,4
45938,1
45939,4
45940,1
45941,0
45942,1
45943,1
45944,3
45945,4
45946,3
45947,3
45948,1
45949,2
45950,2
45951,3
45952,3
45953,1
45954,1
45955,1
45956,3
45957,1
45958,3
45959,2
45960,2
45961,3
45962,3
45963,1
45964,3
45965,1
45966,2
45967,4
45968,2
45969,2
45970,1
45971,0
45972,3
45973,3
45974,1
45975,1
45976,3
45977,1
45978,1
45979,3
45980,0
45981,2
45982,0
45983,1
45984,4
45985,1
45986,1
45987,3
45988,1
45989,3
45990,1
45991,2
45992,1
45993,2
45994,2
45995,1
45996,2
45997,1
45998,3
45999,1
46000,0
46001,1
46002,2
46003,1
46004,3
46005,1
46006,3
46007,2
46008,1
46009,1
46010,1
46011,4
46012,0
46013,4
46014,2
46015,1
46016,3
46017,2
46018,0
46019,4
46020,1
46021,1
46022,0
46023,3
46024,1
46025,1
46026,0
46027,4
46028,4
46029,3
46030,0
46031,1
46032,4
46033,1
46034,0
46035,1
46036,1
46037,3
46038,1
46039,1
46040,1
46041,3
46042,0
46043,1
46044,1
46045,0
46046,1
46047,4
46048,2
46049,2
46050,3
46051,4
46052,4
46053,0
46054,3
46055,3
46056,2
46057,0
46058,2
46059,3
46060,3
46061,1
46062,0
46063,3
46064,3
46065,4
46066,0
46067,3
46068,1
46069,2
46070,3
46071,3
46072,3
46073,3
46074,1
46075,1
46076,2
46077,3
46078,0
46079,0
46080,3
46081,1
46082,2
46083,1
46084,3
46085,1
46086,3
46087,1
46088,2
46089,3
46090,1
46091,0
46092,2
46093,1
46094,3
46095,1
46096,3
46097,0
46098,4
46099,3
46100,3
46101,2
46102,1
46103,3
46104,0
46105,2
46106,1
46107,3
46108,3
46109,2
46110,0
46111,2
46112,1
46113,1
46114,2
46115,0
46116,0
46117,2
46118,2
46119,2
46120,3
46121,1
46122,3
46123,2
46124,2
46125,1
46126,4
46127,1
46128,1
46129,2
46130,1
46131,3
46132,3
46133,3
46134,3
46135,3
46136,1
46137,1
46138,2
46139,2
46140,1
46141,3
46142,1
46143,1
46144,0
46145,4
46146,1
46147,3
46148,2
46149,1
46150,3
46151,3
46152,3
46153,3
46154,0
46155,1
46156,2
46157,1
46158,1
46159,3
46160,0
46161,3
46162,2
46163,1
46164,3
46165,1
46166,2
46167,4
46168,2
46169,1
46170,4
46171,3
46172,1
46173,3
46174,3
46175,2
46176,3
46177,3
46178,3
46179,2
46180,2
46181,3
46182,1
46183,4
46184,1
46185,2
46186,2
46187,1
46188,1
46189,1
46190,1
46191,3
46192,2
46193,1
46194,3
46195,3
46196,1
46197,1
46198,0
46199,2
46200,4
46201,4
46202,1
46203,3
46204,4
46205,2
46206,4
46207,0
46208,3
46209,3
46210,3
46211,3
46212,1
46213,3
46214,0
46215,0
46216,4
46217,3
46218,1
46219,3
46220,3
46221,4
46222,1
46223,4
46224,4
46225,1
46226,0
46227,2
46228,2
46229,3
46230,0
46231,3
46232,3
46233,2
46234,1
46235,3
46236,2
46237,2
46238,4
46239,4
46240,4
46241,3
46242,1
46243,1
46244,0
46245,1
46246,1
46247,4
46248,3
46249,2
46250,3
46251,2
46252,2
46253,2
46254,1
46255,3
46256,4
46257,1
46258,3
46259,4
46260,3
46261,1
46262,2
46263,2
46264,1
46265,2
46266,2
46267,1
46268,3
46269,1
46270,2
46271,3
46272,4
46273,2
46274,1
46275,3
46276,3
46277,0
46278,0
46279,3
46280,3
46281,3
46282,3
46283,3
46284,3
46285,1
46286,2
46287,2
46288,1
46289,1
46290,3
46291,1
46292,0
46293,1
46294,3
46295,3
46296,1
46297,2
46298,0
46299,2
46300,3
46301,3
46302,1
46303,3
46304,3
46305,1
46306,1
46307,1
46308,2
46309,1
46310,2
46311,1
46312,3
46313,3
46314,1
46315,2
46316,3
46317,0
46318,1
46319,3
46320,3
46321,3
46322,4
46323,1
46324,1
46325,1
46326,1
46327,1
46328,0
46329,1
46330,3
46331,3
46332,2
46333,3
46334,2
46335,1
46336,3
46337,2
46338,4
46339,3
46340,3
46341,2
46342,1
46343,3
46344,0
46345,2
46346,4
46347,1
46348,2
46349,1
46350,1
46351,1
46352,1
46353,4
46354,1
46355,0
46356,3
46357,2
46358,0
46359,3
46360,2
46361,2
46362,3
46363,3
46364,1
46365,2
46366,3
46367,1
46368,2
46369,3
46370,1
46371,3
46372,1
46373,4
46374,3
46375,1
46376,1
46377,3
46378,2
46379,4
46380,1
46381,0
46382,3
46383,1
46384,0
46385,1
46386,3
46387,3
46388,1
46389,1
46390,3
46391,1
46392,2
46393,2
46394,0
46395,3
46396,3
46397,3
46398,1
46399,4
46400,3
46401,4
46402,2
46403,4
46404,2
46405,1
46406,2
46407,2
46408,4
46409,2
46410,3
46411,0
46412,0
46413,2
46414,3
46415,2
46416,1
46417,2
46418,1
46419,1
46420,2
46421,1
46422,0
46423,1
46424,0
46425,1
46426,3
46427,4
46428,4
46429,3
46430,1
46431,2
46432,1
46433,1
46434,1
46435,2
46436,3
46437,2
46438,1
46439,1
46440,3
46441,2
46442,3
46443,2
46444,3
46445,1
46446,3
46447,4
46448,3
46449,3
46450,3
46451,4
46452,1
46453,2
46454,3
46455,3
46456,3
46457,2
46458,2
46459,3
46460,0
46461,0
46462,3
46463,0
46464,3
46465,3
46466,3
46467,4
46468,1
46469,3
46470,2
46471,2
46472,1
46473,3
46474,1
46475,1
46476,1
46477,1
46478,3
46479,2
46480,1
46481,3
46482,4
46483,2
46484,1
46485,4
46486,2
46487,1
46488,3
46489,1
46490,1
46491,3
46492,2
46493,1
46494,2
46495,3
46496,2
46497,1
46498,0
46499,3
46500,3
46501,1
46502,0
46503,0
46504,1
46505,4
46506,1
46507,0
46508,1
46509,2
46510,1
46511,3
46512,0
46513,3
46514,1
46515,3
46516,1
46517,2
46518,2
46519,2
46520,0
46521,1
46522,4
46523,1
46524,3
46525,3
46526,3
46527,1
46528,2
46529,1
46530,2
46531,3
46532,0
46533,2
46534,1
46535,2
46536,4
46537,1
46538,3
46539,1
46540,1
46541,3
46542,4
46543,0
46544,3
46545,3
46546,3
46547,2
46548,2
46549,2
46550,1
46551,3
46552,1
46553,3
46554,1
46555,0
46556,3
46557,1
46558,3
46559,3
46560,2
46561,2
46562,2
46563,3
46564,3
46565,1
46566,3
46567,2
46568,1
46569,2
46570,1
46571,0
46572,0
46573,3
46574,0
46575,1
46576,4
46577,2
46578,3
46579,3
46580,1
46581,4
46582,2
46583,1
46584,1
46585,3
46586,1
46587,0
46588,3
46589,0
46590,4
46591,0
46592,3
46593,3
46594,3
46595,2
46596,0
46597,1
46598,1
46599,1
46600,1
46601,1
46602,1
46603,4
46604,4
46605,4
46606,3
46607,2
46608,1
46609,0
46610,2
46611,1
46612,3
46613,3
46614,1
46615,1
46616,1
46617,4
46618,3
46619,1
46620,1
46621,4
46622,0
46623,4
46624,3
46625,1
46626,4
46627,1
46628,4
46629,3
46630,1
46631,2
46632,1
46633,3
46634,1
46635,1
46636,1
46637,1
46638,4
46639,2
46640,3
46641,2
46642,1
46643,1
46644,1
46645,1
46646,3
46647,3
46648,1
46649,1
46650,3
46651,4
46652,1
46653,3
46654,4
46655,3
46656,0
46657,4
46658,1
46659,1
46660,1
46661,2
46662,3
46663,1
46664,3
46665,4
46666,0
46667,3
46668,0
46669,2
46670,3
46671,3
46672,1
46673,2
46674,0
46675,1
46676,3
46677,2
46678,1
46679,0
46680,3
46681,3
46682,2
46683,3
46684,1
46685,2
46686,3
46687,0
46688,1
46689,1
46690,1
46691,1
46692,4
46693,4
46694,0
46695,2
46696,1
46697,3
46698,2
46699,1
46700,2
46701,3
46702,1
46703,3
46704,4
46705,4
46706,2
46707,3
46708,2
46709,2
46710,2
46711,2
46712,0
46713,1
46714,1
46715,2
46716,1
46717,3
46718,4
46719,3
46720,3
46721,0
46722,3
46723,1
46724,2
46725,4
46726,1
46727,4
46728,3
46729,1
46730,3
46731,0
46732,3
46733,2
46734,1
46735,2
46736,2
46737,1
46738,1
46739,1
46740,1
46741,3
46742,1
46743,1
46744,4
46745,2
46746,1
46747,2
46748,3
46749,1
46750,2
46751,0
46752,1
46753,1
46754,4
46755,1
46756,3
46757,3
46758,0
46759,1
46760,1
46761,1
46762,4
46763,1
46764,1
46765,2
46766,3
46767,0
46768,0
46769,2
46770,1
46771,4
46772,2
46773,3
46774,0
46775,3
46776,3
46777,1
46778,1
46779,1
46780,0
46781,3
46782,3
46783,0
46784,4
46785,1
46786,2
46787,4
46788,3
46789,3
46790,3
46791,3
46792,1
46793,1
46794,1
46795,3
46796,1
46797,1
46798,3
46799,1
46800,2
46801,4
46802,3
46803,3
46804,0
46805,3
46806,3
46807,2
46808,1
46809,2
46810,1
46811,2
46812,2
46813,0
46814,2
46815,2
46816,4
46817,3
46818,0
46819,3
46820,3
46821,1
46822,3
46823,2
46824,2
46825,1
46826,3
46827,1
46828,1
46829,3
46830,1
46831,3
46832,2
46833,0
46834,1
46835,3
46836,1
46837,1
46838,1
46839,2
46840,3
46841,3
46842,0
46843,1
46844,4
46845,3
46846,1
46847,3
46848,3
46849,1
46850,1
46851,4
46852,1
46853,4
46854,0
46855,1
46856,2
46857,2
46858,1
46859,2
46860,3
46861,3
46862,1
46863,3
46864,3
46865,3
46866,2
46867,3
46868,1
46869,4
46870,4
46871,3
46872,2
46873,4
46874,1
46875,1
46876,3
46877,4
46878,1
46879,2
46880,2
46881,2
46882,4
46883,1
46884,2
46885,3
46886,3
46887,1
46888,2
46889,3
46890,2
46891,3
46892,3
46893,3
46894,1
46895,0
46896,1
46897,3
46898,3
46899,1
46900,1
46901,4
46902,3
46903,3
46904,3
46905,3
46906,3
46907,4
46908,0
46909,3
46910,3
46911,1
46912,1
46913,3
46914,3
46915,3
46916,0
46917,2
46918,0
46919,1
46920,4
46921,4
46922,2
46923,1
46924,3
46925,1
46926,1
46927,3
46928,4
46929,0
46930,1
46931,4
46932,2
46933,1
46934,2
46935,1
46936,3
46937,2
46938,3
46939,3
46940,1
46941,3
46942,2
46943,1
46944,4
46945,1
46946,4
46947,2
46948,3
46949,3
46950,1
46951,3
46952,2
46953,3
46954,4
46955,1
46956,2
46957,1
46958,1
46959,1
46960,4
46961,1
46962,1
46963,2
46964,1
46965,1
46966,2
46967,4
46968,1
46969,2
46970,2
46971,1
46972,1
46973,2
46974,3
46975,4
46976,3
46977,1
46978,1
46979,3
46980,1
46981,1
46982,3
46983,4
46984,3
46985,0
46986,0
46987,3
46988,3
46989,1
46990,3
46991,1
46992,1
46993,3
46994,2
46995,3
46996,1
46997,3
46998,3
46999,1
47000,1
47001,3
47002,1
47003,1
47004,1
47005,0
47006,1
47007,3
47008,3
47009,3
47010,2
47011,2
47012,3
47013,1
47014,2
47015,3
47016,3
47017,3
47018,2
47019,2
47020,1
47021,2
47022,0
47023,3
47024,2
47025,0
47026,4
47027,3
47028,0
47029,2
47030,3
47031,1
47032,1
47033,3
47034,1
47035,2
47036,2
47037,1
47038,1
47039,3
47040,1
47041,3
47042,4
47043,2
47044,2
47045,1
47046,2
47047,1
47048,2
47049,3
47050,2
47051,1
47052,0
47053,1
47054,3
47055,1
47056,1
47057,3
47058,2
47059,4
47060,1
47061,0
47062,3
47063,0
47064,2
47065,0
47066,4
47067,1
47068,0
47069,0
47070,2
47071,0
47072,4
47073,1
47074,3
47075,2
47076,1
47077,1
47078,3
47079,2
47080,1
47081,3
47082,1
47083,3
47084,1
47085,2
47086,0
47087,4
47088,3
47089,0
47090,3
47091,0
47092,2
47093,4
47094,1
47095,1
47096,0
47097,3
47098,1
47099,1
47100,4
47101,1
47102,1
47103,2
47104,3
47105,2
47106,0
47107,0
47108,1
47109,1
47110,1
47111,1
47112,2
47113,2
47114,1
47115,3
47116,1
47117,1
47118,1
47119,4
47120,3
47121,1
47122,2
47123,1
47124,3
47125,1
47126,3
47127,1
47128,1
47129,1
47130,3
47131,4
47132,2
47133,2
47134,3
47135,4
47136,1
47137,2
47138,1
47139,2
47140,1
47141,1
47142,3
47143,3
47144,3
47145,1
47146,2
47147,3
47148,3
47149,2
47150,1
47151,3
47152,1
47153,0
47154,2
47155,1
47156,2
47157,3
47158,2
47159,1
47160,3
47161,1
47162,1
47163,0
47164,1
47165,2
47166,1
47167,0
47168,3
47169,3
47170,3
47171,3
47172,3
47173,0
47174,1
47175,0
47176,3
47177,3
47178,2
47179,3
47180,3
47181,4
47182,2
47183,3
47184,3
47185,2
47186,2
47187,4
47188,4
47189,2
47190,1
47191,1
47192,1
47193,3
47194,3
47195,3
47196,3
47197,1
47198,3
47199,3
47200,3
47201,0
47202,3
47203,1
47204,1
47205,3
47206,0
47207,2
47208,0
47209,1
47210,1
47211,4
47212,3
47213,3
47214,1
47215,1
47216,1
47217,3
47218,1
47219,1
47220,3
47221,1
47222,1
47223,3
47224,2
47225,3
47226,2
47227,3
47228,3
47229,1
47230,3
47231,3
47232,3
47233,1
47234,1
47235,3
47236,3
47237,2
47238,0
47239,4
47240,1
47241,1
47242,1
47243,1
47244,2
47245,3
47246,4
47247,2
47248,1
47249,1
47250,3
47251,3
47252,1
47253,3
47254,3
47255,3
47256,2
47257,1
47258,1
47259,3
47260,4
47261,2
47262,3
47263,3
47264,3
47265,3
47266,1
47267,3
47268,3
47269,1
47270,2
47271,1
47272,2
47273,1
47274,1
47275,1
47276,0
47277,4
47278,4
47279,3
47280,1
47281,1
47282,1
47283,2
47284,4
47285,3
47286,4
47287,3
47288,3
47289,1
47290,1
47291,3
47292,3
47293,1
47294,3
47295,3
47296,1
47297,1
47298,3
47299,1
47300,1
47301,4
47302,3
47303,1
47304,3
47305,1
47306,0
47307,3
47308,1
47309,1
47310,3
47311,3
47312,2
47313,1
47314,0
47315,3
47316,3
47317,3
47318,4
47319,2
47320,1
47321,3
47322,1
47323,0
47324,2
47325,3
47326,4
47327,1
47328,1
47329,3
47330,1
47331,1
47332,1
47333,1
47334,2
47335,3
47336,4
47337,1
47338,1
47339,4
47340,1
47341,0
47342,3
47343,2
47344,3
47345,3
47346,1
47347,4
47348,1
47349,1
47350,3
47351,0
47352,1
47353,0
47354,3
47355,3
47356,2
47357,0
47358,2
47359,1
47360,2
47361,3
47362,0
47363,3
47364,3
47365,3
47366,2
47367,1
47368,1
47369,0
47370,1
47371,0
47372,1
47373,0
47374,4
47375,1
47376,1
47377,1
47378,0
47379,1
47380,2
47381,4
47382,0
47383,1
47384,0
47385,1
47386,3
47387,1
47388,2
47389,2
47390,3
47391,0
47392,3
47393,2
47394,4
47395,1
47396,1
47397,3
47398,4
47399,0
47400,3
47401,2
47402,1
47403,1
47404,3
47405,0
47406,1
47407,3
47408,0
47409,0
47410,4
47411,1
47412,1
47413,2
47414,3
47415,3
47416,1
47417,1
47418,3
47419,1
47420,0
47421,4
47422,2
47423,3
47424,2
47425,4
47426,3
47427,4
47428,4
47429,3
47430,0
47431,1
47432,1
47433,3
47434,2
47435,3
47436,1
47437,0
47438,3
47439,2
47440,3
47441,0
47442,1
47443,2
47444,4
47445,3
47446,0
47447,1
47448,0
47449,2
47450,0
47451,2
47452,2
47453,3
47454,2
47455,1
47456,4
47457,2
47458,0
47459,2
47460,4
47461,1
47462,0
47463,3
47464,2
47465,1
47466,1
47467,1
47468,1
47469,2
47470,2
47471,3
47472,2
47473,2
47474,1
47475,4
47476,3
47477,4
47478,2
47479,1
47480,1
47481,1
47482,2
47483,1
47484,2
47485,0
47486,1
47487,1
47488,2
47489,3
47490,1
47491,1
47492,3
47493,1
47494,1
47495,1
47496,3
47497,3
47498,3
47499,2
47500,2
47501,3
47502,1
47503,3
47504,0
47505,1
47506,1
47507,0
47508,1
47509,3
47510,2
47511,2
47512,1
47513,3
47514,3
47515,2
47516,2
47517,3
47518,3
47519,1
47520,1
47521,4
47522,0
47523,2
47524,2
47525,1
47526,4
47527,2
47528,4
47529,3
47530,3
47531,3
47532,1
47533,1
47534,1
47535,4
47536,3
47537,3
47538,1
47539,3
47540,3
47541,2
47542,2
47543,1
47544,3
47545,4
47546,2
47547,2
47548,1
47549,1
47550,1
47551,3
47552,1
47553,0
47554,2
47555,3
47556,2
47557,2
47558,3
47559,3
47560,2
47561,2
47562,4
47563,1
47564,2
47565,1
47566,2
47567,4
47568,1
47569,0
47570,1
47571,4
47572,1
47573,0
47574,3
47575,1
47576,1
47577,2
47578,4
47579,1
47580,1
47581,2
47582,2
47583,2
47584,4
47585,0
47586,2
47587,2
47588,3
47589,2
47590,3
47591,2
47592,1
47593,3
47594,2
47595,3
47596,2
47597,2
47598,2
47599,1
47600,1
47601,1
47602,3
47603,2
47604,4
47605,3
47606,2
47607,3
47608,1
47609,1
47610,3
47611,2
47612,2
47613,4
47614,3
47615,1
47616,1
47617,2
47618,3
47619,3
47620,2
47621,1
47622,1
47623,3
47624,1
47625,1
47626,0
47627,3
47628,1
47629,0
47630,0
47631,3
47632,3
47633,1
47634,3
47635,4
47636,2
47637,4
47638,1
47639,2
47640,3
47641,1
47642,1
47643,3
47644,1
47645,2
47646,4
47647,3
47648,0
47649,1
47650,2
47651,4
47652,1
47653,4
47654,4
47655,3
47656,2
47657,4
47658,3
47659,1
47660,3
47661,1
47662,3
47663,3
47664,2
47665,1
47666,1
47667,2
47668,1
47669,0
47670,2
47671,3
47672,3
47673,3
47674,3
47675,1
47676,1
47677,1
47678,3
47679,2
47680,1
47681,2
47682,3
47683,0
47684,2
47685,3
47686,1
47687,3
47688,2
47689,0
47690,1
47691,2
47692,4
47693,2
47694,2
47695,1
47696,4
47697,2
47698,1
47699,3
47700,1
47701,2
47702,3
47703,3
47704,3
47705,1
47706,1
47707,3
47708,3
47709,3
47710,2
47711,1
47712,4
47713,2
47714,0
47715,2
47716,1
47717,1
47718,4
47719,3
47720,3
47721,2
47722,1
47723,1
47724,2
47725,1
47726,1
47727,4
47728,3
47729,4
47730,1
47731,1
47732,3
47733,2
47734,1
47735,2
47736,3
47737,1
47738,1
47739,1
47740,1
47741,4
47742,1
47743,1
47744,4
47745,1
47746,3
47747,1
47748,0
47749,3
47750,0
47751,1
47752,2
47753,3
47754,1
47755,3
47756,1
47757,2
47758,2
47759,3
47760,1
47761,3
47762,0
47763,3
47764,1
47765,2
47766,0
47767,1
47768,4
47769,1
47770,2
47771,3
47772,2
47773,4
47774,3
47775,1
47776,1
47777,2
47778,1
47779,2
47780,3
47781,0
47782,1
47783,3
47784,1
47785,2
47786,2
47787,0
47788,3
47789,3
47790,3
47791,0
47792,2
47793,4
47794,0
47795,4
47796,1
47797,2
47798,1
47799,1
47800,0
47801,0
47802,4
47803,0
47804,4
47805,4
47806,2
47807,0
47808,4
47809,3
47810,0
47811,0
47812,1
47813,0
47814,3
47815,2
47816,3
47817,3
47818,1
47819,1
47820,0
47821,3
47822,0
47823,2
47824,2
47825,3
47826,2
47827,1
47828,0
47829,1
47830,3
47831,3
47832,0
47833,0
47834,3
47835,1
47836,1
47837,2
47838,3
47839,1
47840,1
47841,2
47842,0
47843,3
47844,2
47845,0
47846,3
47847,3
47848,4
47849,1
47850,1
47851,0
47852,4
47853,0
47854,1
47855,3
47856,4
47857,3
47858,3
47859,0
47860,3
47861,1
47862,1
47863,3
47864,3
47865,3
47866,2
47867,4
47868,0
47869,2
47870,3
47871,0
47872,1
47873,1
47874,1
47875,3
47876,2
47877,3
47878,3
47879,0
47880,1
47881,3
47882,1
47883,0
47884,3
47885,0
47886,3
47887,4
47888,2
47889,1
47890,3
47891,2
47892,0
47893,1
47894,2
47895,0
47896,3
47897,2
47898,2
47899,3
47900,1
47901,1
47902,3
47903,2
47904,1
47905,1
47906,3
47907,2
47908,4
47909,1
47910,3
47911,1
47912,3
47913,4
47914,3
47915,0
47916,4
47917,1
47918,2
47919,1
47920,1
47921,1
47922,2
47923,2
47924,4
47925,4
47926,2
47927,1
47928,0
47929,0
47930,4
47931,2
47932,4
47933,3
47934,1
47935,1
47936,3
47937,2
47938,1
47939,0
47940,3
47941,3
47942,1
47943,1
47944,2
47945,1
47946,1
47947,2
47948,1
47949,3
47950,4
47951,4
47952,3
47953,1
47954,2
47955,1
47956,3
47957,1
47958,3
47959,3
47960,1
47961,3
47962,3
47963,3
47964,1
47965,1
47966,1
47967,3
47968,3
47969,2
47970,1
47971,0
47972,3
47973,3
47974,1
47975,0
47976,3
47977,1
47978,3
47979,4
47980,3
47981,1
47982,1
47983,2
47984,3
47985,1
47986,1
47987,2
47988,1
47989,3
47990,1
47991,2
47992,3
47993,1
47994,1
47995,3
47996,3
47997,2
47998,1
47999,0
48000,2
48001,2
48002,1
48003,2
48004,0
48005,1
48006,0
48007,1
48008,2
48009,1
48010,3
48011,1
48012,0
48013,4
48014,2
48015,3
48016,3
48017,1
48018,1
48019,4
48020,0
48021,0
48022,3
48023,1
48024,0
48025,3
48026,4
48027,4
48028,1
48029,1
48030,1
48031,0
48032,2
48033,1
48034,3
48035,3
48036,1
48037,4
48038,0
48039,0
48040,0
48041,1
48042,4
48043,2
48044,4
48045,4
48046,3
48047,1
48048,2
48049,3
48050,3
48051,2
48052,3
48053,2
48054,1
48055,3
48056,3
48057,2
48058,3
48059,3
48060,3
48061,0
48062,3
48063,1
48064,3
48065,3
48066,3
48067,3
48068,1
48069,2
48070,0
48071,3
48072,1
48073,1
48074,0
48075,2
48076,2
48077,0
48078,2
48079,1
48080,3
48081,4
48082,3
48083,3
48084,1
48085,3
48086,3
48087,2
48088,1
48089,3
48090,1
48091,3
48092,2
48093,3
48094,3
48095,2
48096,3
48097,1
48098,4
48099,1
48100,4
48101,2
48102,3
48103,1
48104,1
48105,3
48106,1
48107,2
48108,0
48109,3
48110,1
48111,3
48112,2
48113,1
48114,3
48115,2
48116,0
48117,2
48118,2
48119,2
48120,4
48121,3
48122,4
48123,2
48124,3
48125,3
48126,2
48127,3
48128,0
48129,3
48130,3
48131,3
48132,1
48133,4
48134,1
48135,3
48136,1
48137,4
48138,1
48139,3
48140,2
48141,1
48142,1
48143,0
48144,1
48145,3
48146,2
48147,3
48148,4
48149,1
48150,1
48151,3
48152,2
48153,2
48154,1
48155,1
48156,3
48157,2
48158,2
48159,1
48160,0
48161,2
48162,1
48163,1
48164,3
48165,3
48166,4
48167,3
48168,3
48169,3
48170,3
48171,3
48172,4
48173,1
48174,2
48175,3
48176,3
48177,4
48178,0
48179,2
48180,1
48181,0
48182,1
48183,2
48184,1
48185,4
48186,1
48187,3
48188,3
48189,2
48190,0
48191,3
48192,3
48193,1
48194,0
48195,3
48196,2
48197,3
48198,4
48199,3
48200,3
48201,4
48202,3
48203,3
48204,2
48205,2
48206,1
48207,1
48208,3
48209,1
48210,0
48211,2
48212,3
48213,3
48214,1
48215,3
48216,1
48217,0
48218,3
48219,3
48220,2
48221,4
48222,2
48223,1
48224,4
48225,1
48226,3
48227,2
48228,1
48229,3
48230,3
48231,4
48232,3
48233,1
48234,2
48235,4
48236,3
48237,1
48238,2
48239,2
48240,0
48241,4
48242,3
48243,3
48244,1
48245,1
48246,1
48247,1
48248,1
48249,1
48250,0
48251,3
48252,3
48253,2
48254,3
48255,1
48256,2
48257,1
48258,3
48259,0
48260,3
48261,3
48262,4
48263,2
48264,2
48265,2
48266,3
48267,3
48268,3
48269,3
48270,1
48271,3
48272,0
48273,2
48274,1
48275,1
48276,4
48277,1
48278,3
48279,0
48280,1
48281,3
48282,1
48283,0
48284,4
48285,2
48286,2
48287,0
48288,1
48289,2
48290,4
48291,2
48292,3
48293,1
48294,2
48295,0
48296,3
48297,4
48298,1
48299,4
48300,1
48301,0
48302,3
48303,1
48304,3
48305,1
48306,2
48307,3
48308,2
48309,1
48310,1
48311,2
48312,1
48313,1
48314,2
48315,1
48316,3
48317,1
48318,3
48319,3
48320,1
48321,3
48322,0
48323,1
48324,1
48325,3
48326,4
48327,3
48328,3
48329,1
48330,0
48331,3
48332,3
48333,3
48334,1
48335,1
48336,1
48337,4
48338,2
48339,2
48340,1
48341,3
48342,2
48343,1
48344,1
48345,2
48346,1
48347,2
48348,3
48349,2
48350,1
48351,3
48352,2
48353,4
48354,1
48355,2
48356,0
48357,1
48358,2
48359,4
48360,4
48361,1
48362,4
48363,1
48364,2
48365,2
48366,1
48367,4
48368,1
48369,4
48370,2
48371,4
48372,1
48373,1
48374,1
48375,1
48376,3
48377,1
48378,0
48379,4
48380,1
48381,1
48382,3
48383,3
48384,3
48385,3
48386,2
48387,1
48388,1
48389,4
48390,0
48391,3
48392,1
48393,3
48394,0
48395,3
48396,1
48397,3
48398,3
48399,1
48400,1
48401,1
48402,1
48403,3
48404,3
48405,2
48406,2
48407,1
48408,3
48409,1
48410,4
48411,3
48412,2
48413,2
48414,0
48415,1
48416,2
48417,3
48418,3
48419,3
48420,3
48421,2
48422,3
48423,3
48424,1
48425,1
48426,2
48427,3
48428,2
48429,1
48430,1
48431,3
48432,1
48433,1
48434,3
48435,1
48436,0
48437,1
48438,2
48439,3
48440,3
48441,1
48442,4
48443,1
48444,1
48445,3
48446,1
48447,4
48448,1
48449,2
48450,2
48451,3
48452,1
48453,2
48454,1
48455,1
48456,1
48457,3
48458,0
48459,4
48460,1
48461,2
48462,2
48463,4
48464,3
48465,2
48466,0
48467,2
48468,4
48469,3
48470,1
48471,1
48472,2
48473,0
48474,1
48475,3
48476,3
48477,1
48478,3
48479,4
48480,1
48481,3
48482,2
48483,1
48484,1
48485,3
48486,3
48487,1
48488,3
48489,3
48490,0
48491,1
48492,3
48493,1
48494,0
48495,1
48496,3
48497,1
48498,4
48499,3
48500,0
48501,2
48502,1
48503,1
48504,1
48505,1
48506,1
48507,3
48508,3
48509,3
48510,1
48511,0
48512,3
48513,3
48514,3
48515,3
48516,3
48517,3
48518,1
48519,4
48520,4
48521,3
48522,2
48523,3
48524,1
48525,0
48526,4
48527,0
48528,1
48529,1
48530,2
48531,1
48532,1
48533,1
48534,3
48535,0
48536,2
48537,3
48538,1
48539,2
48540,1
48541,4
48542,3
48543,1
48544,3
48545,1
48546,1
48547,4
48548,2
48549,2
48550,2
48551,0
48552,1
48553,1
48554,3
48555,2
48556,4
48557,1
48558,3
48559,2
48560,2
48561,2
48562,1
48563,4
48564,3
48565,3
48566,1
48567,4
48568,3
48569,1
48570,1
48571,3
48572,1
48573,1
48574,3
48575,0
48576,3
48577,1
48578,3
48579,1
48580,1
48581,3
48582,1
48583,1
48584,1
48585,0
48586,1
48587,2
48588,0
48589,3
48590,3
48591,3
48592,3
48593,2
48594,2
48595,4
48596,2
48597,3
48598,3
48599,3
48600,3
48601,3
48602,1
48603,3
48604,3
48605,1
48606,2
48607,2
48608,1
48609,4
48610,3
48611,1
48612,2
48613,1
48614,2
48615,3
48616,1
48617,1
48618,2
48619,3
48620,3
48621,1
48622,3
48623,3
48624,3
48625,2
48626,1
48627,3
48628,3
48629,1
48630,3
48631,2
48632,1
48633,3
48634,1
48635,3
48636,2
48637,1
48638,3
48639,0
48640,2
48641,1
48642,3
48643,0
48644,4
48645,2
48646,1
48647,4
48648,2
48649,1
48650,4
48651,3
48652,3
48653,3
48654,0
48655,1
48656,1
48657,1
48658,1
48659,1
48660,1
48661,3
48662,2
48663,1
48664,4
48665,0
48666,1
48667,3
48668,3
48669,4
48670,3
48671,3
48672,2
48673,4
48674,4
48675,3
48676,1
48677,1
48678,1
48679,4
48680,1
48681,3
48682,1
48683,3
48684,4
48685,2
48686,3
48687,1
48688,2
48689,0
48690,1
48691,3
48692,4
48693,0
48694,3
48695,2
48696,3
48697,3
48698,2
48699,4
48700,2
48701,2
48702,3
48703,3
48704,1
48705,1
48706,1
48707,2
48708,1
48709,1
48710,2
48711,2
48712,1
48713,3
48714,3
48715,1
48716,3
48717,3
48718,2
48719,3
48720,4
48721,1
48722,3
48723,1
48724,4
48725,2
48726,3
48727,2
48728,2
48729,3
48730,3
48731,2
48732,0
48733,1
48734,4
48735,4
48736,1
48737,3
48738,0
48739,3
48740,1
48741,1
48742,2
48743,2
48744,1
48745,1
48746,4
48747,4
48748,3
48749,3
48750,1
48751,3
48752,3
48753,1
48754,4
48755,2
48756,3
48757,2
48758,3
48759,1
48760,1
48761,1
48762,1
48763,2
48764,3
48765,3
48766,0
48767,3
48768,0
48769,1
48770,1
48771,1
48772,2
48773,3
48774,0
48775,1
48776,2
48777,2
48778,2
48779,3
48780,1
48781,1
48782,2
48783,1
48784,3
48785,1
48786,3
48787,3
48788,0
48789,3
48790,4
48791,4
48792,4
48793,1
48794,3
48795,4
48796,4
48797,2
48798,3
48799,1
48800,3
48801,3
48802,0
48803,1
48804,3
48805,2
48806,2
48807,1
48808,3
48809,0
48810,1
48811,1
48812,1
48813,1
48814,1
48815,1
48816,4
48817,0
48818,3
48819,2
48820,2
48821,2
48822,3
48823,3
48824,0
48825,4
48826,1
48827,1
48828,1
48829,3
48830,1
48831,0
48832,1
48833,3
48834,3
48835,1
48836,3
48837,1
48838,3
48839,1
48840,3
48841,1
48842,1
48843,3
48844,1
48845,4
48846,2
48847,2
48848,3
48849,1
48850,1
48851,2
48852,0
48853,0
48854,3
48855,3
48856,3
48857,2
48858,1
48859,4
48860,0
48861,3
48862,0
48863,3
48864,4
48865,0
48866,3
48867,3
48868,4
48869,3
48870,1
48871,0
48872,4
48873,1
48874,1
48875,1
48876,3
48877,3
48878,1
48879,4
48880,3
48881,4
48882,3
48883,0
48884,2
48885,1
48886,1
48887,0
48888,1
48889,0
48890,3
48891,2
48892,2
48893,0
48894,0
48895,1
48896,1
48897,0
48898,1
48899,3
48900,1
48901,3
48902,1
48903,3
48904,3
48905,1
48906,1
48907,0
48908,1
48909,2
48910,1
48911,1
48912,1
48913,1
48914,1
48915,2
48916,2
48917,4
48918,1
48919,3
48920,1
48921,1
48922,3
48923,0
48924,2
48925,0
48926,2
48927,3
48928,2
48929,0
48930,2
48931,3
48932,1
48933,3
48934,2
48935,1
48936,2
48937,0
48938,1
48939,2
48940,2
48941,2
48942,1
48943,2
48944,3
48945,3
48946,4
48947,2
48948,1
48949,1
48950,3
48951,1
48952,3
48953,2
48954,1
48955,3
48956,3
48957,3
48958,2
48959,0
48960,2
48961,1
48962,4
48963,0
48964,3
48965,2
48966,0
48967,3
48968,2
48969,2
48970,1
48971,3
48972,3
48973,4
48974,3
48975,1
48976,0
48977,2
48978,3
48979,4
48980,0
48981,4
48982,1
48983,2
48984,4
48985,1
48986,4
48987,4
48988,2
48989,2
48990,4
48991,0
48992,1
48993,4
48994,3
48995,2
48996,3
48997,1
48998,2
48999,0
49000,4
49001,3
49002,0
49003,3
49004,2
49005,3
49006,0
49007,1
49008,3
49009,1
49010,3
49011,3
49012,4
49013,0
49014,3
49015,1
49016,2
49017,2
49018,2
49019,1
49020,3
49021,3
49022,1
49023,1
49024,1
49025,1
49026,1
49027,3
49028,3
49029,3
49030,1
49031,1
49032,1
49033,2
49034,4
49035,2
49036,3
49037,2
49038,2
49039,4
49040,2
49041,2
49042,3
49043,2
49044,2
49045,3
49046,3
49047,1
49048,4
49049,2
49050,0
49051,1
49052,1
49053,3
49054,2
49055,1
49056,3
49057,1
49058,3
49059,3
49060,1
49061,3
49062,3
49063,4
49064,1
49065,1
49066,1
49067,3
49068,1
49069,2
49070,4
49071,3
49072,3
49073,1
49074,0
49075,3
49076,2
49077,4
49078,2
49079,1
49080,0
49081,1
49082,2
49083,3
49084,3
49085,3
49086,3
49087,3
49088,2
49089,3
49090,0
49091,2
49092,1
49093,4
49094,1
49095,1
49096,1
49097,1
49098,2
49099,3
49100,3
49101,0
49102,2
49103,0
49104,4
49105,3
49106,2
49107,3
49108,1
49109,1
49110,1
49111,3
49112,0
49113,1
49114,1
49115,3
49116,0
49117,1
49118,4
49119,3
49120,0
49121,1
49122,3
49123,3
49124,0
49125,4
49126,3
49127,1
49128,1
49129,3
49130,3
49131,3
49132,3
49133,0
49134,1
49135,3
49136,3
49137,1
49138,1
49139,0
49140,3
49141,1
49142,0
49143,1
49144,3
49145,3
49146,2
49147,2
49148,1
49149,4
49150,1
49151,3
49152,2
49153,3
49154,1
49155,3
49156,2
49157,1
49158,1
49159,0
49160,1
49161,3
49162,2
49163,1
49164,1
49165,4
49166,1
49167,4
49168,1
49169,3
49170,1
49171,4
49172,0
49173,3
49174,1
49175,2
49176,1
49177,2
49178,0
49179,1
49180,0
49181,3
49182,1
49183,2
49184,3
49185,4
49186,1
49187,2
49188,3
49189,1
49190,1
49191,4
49192,3
49193,2
49194,3
49195,4
49196,4
49197,4
49198,1
49199,2
49200,2
49201,2
49202,1
49203,1
49204,1
49205,3
49206,3
49207,1
49208,3
49209,3
49210,3
49211,3
49212,2
49213,4
49214,2
49215,1
49216,3
49217,3
49218,1
49219,3
49220,2
49221,3
49222,1
49223,4
49224,1
49225,3
49226,2
49227,1
49228,3
49229,3
49230,0
49231,1
49232,3
49233,1
49234,1
49235,2
49236,3
49237,1
49238,3
49239,1
49240,1
49241,2
49242,4
49243,1
49244,2
49245,2
49246,2
49247,1
49248,3
49249,0
49250,3
49251,2
49252,1
49253,1
49254,3
49255,2
49256,4
49257,1
49258,1
49259,2
49260,4
49261,3
49262,2
49263,4
49264,1
49265,1
49266,3
49267,1
49268,3
49269,3
49270,3
49271,3
49272,4
49273,2
49274,1
49275,1
49276,1
49277,4
49278,2
49279,1
49280,2
49281,3
49282,1
49283,2
49284,1
49285,1
49286,4
49287,3
49288,3
49289,1
49290,4
49291,0
49292,1
49293,2
49294,2
49295,1
49296,2
49297,3
49298,0
49299,0
49300,2
49301,1
49302,0
49303,2
49304,3
49305,3
49306,3
49307,2
49308,3
49309,1
49310,4
49311,1
49312,1
49313,3
49314,1
49315,1
49316,1
49317,1
49318,1
49319,2
49320,3
49321,3
49322,3
49323,0
49324,3
49325,1
49326,0
49327,1
49328,1
49329,3
49330,3
49331,3
49332,4
49333,1
49334,3
49335,1
49336,2
49337,3
49338,3
49339,1
49340,3
49341,0
49342,2
49343,2
49344,3
49345,1
49346,3
49347,3
49348,0
49349,2
49350,2
49351,4
49352,3
49353,4
49354,2
49355,1
49356,2
49357,4
49358,1
49359,2
49360,1
49361,3
49362,0
49363,1
49364,1
49365,3
49366,1
49367,1
49368,3
49369,2
49370,1
49371,2
49372,3
49373,1
49374,3
49375,3
49376,1
49377,4
49378,1
49379,1
49380,1
49381,1
49382,2
49383,3
49384,2
49385,4
49386,1
49387,2
49388,3
49389,1
49390,4
49391,3
49392,0
49393,1
49394,1
49395,3
49396,2
49397,1
49398,3
49399,4
49400,1
49401,1
49402,1
49403,2
49404,1
49405,3
49406,1
49407,2
49408,1
49409,1
49410,4
49411,1
49412,0
49413,3
49414,3
49415,0
49416,1
49417,2
49418,3
49419,2
49420,3
49421,1
49422,3
49423,1
49424,2
49425,3
49426,2
49427,2
49428,2
49429,1
49430,3
49431,2
49432,2
49433,3
49434,1
49435,3
49436,3
49437,1
49438,0
49439,3
49440,3
49441,3
49442,1
49443,1
49444,3
49445,2
49446,4
49447,3
49448,2
49449,4
49450,3
49451,3
49452,3
49453,1
49454,3
49455,1
49456,3
49457,2
49458,3
49459,2
49460,2
49461,1
49462,3
49463,0
49464,2
49465,1
49466,2
49467,2
49468,3
49469,4
49470,2
49471,2
49472,3
49473,1
49474,2
49475,1
49476,2
49477,0
49478,3
49479,2
49480,0
49481,1
49482,0
49483,1
49484,0
49485,4
49486,4
49487,0
49488,4
49489,1
49490,1
49491,1
49492,4
49493,2
49494,4
49495,1
49496,2
49497,4
49498,1
49499,1
49500,2
49501,3
49502,1
49503,2
49504,2
49505,0
49506,1
49507,0
49508,3
49509,3
49510,2
49511,4
49512,0
49513,3
49514,2
49515,4
49516,3
49517,0
49518,1
49519,3
49520,3
49521,2
49522,2
49523,1
49524,1
49525,0
49526,3
49527,1
49528,1
49529,1
49530,1
49531,2
49532,3
49533,3
49534,4
49535,3
49536,2
49537,1
49538,3
49539,1
49540,1
49541,4
49542,1
49543,1
49544,2
49545,2
49546,4
49547,3
49548,0
49549,1
49550,1
49551,2
49552,2
49553,1
49554,3
49555,1
49556,1
49557,1
49558,2
49559,1
49560,4
49561,1
49562,4
49563,3
49564,3
49565,4
49566,3
49567,3
49568,0
49569,2
49570,3
49571,2
49572,1
49573,3
49574,1
49575,2
49576,1
49577,4
49578,1
49579,3
49580,1
49581,1
49582,4
49583,4
49584,3
49585,4
49586,4
49587,3
49588,2
49589,3
49590,1
49591,1
49592,0
49593,2
49594,2
49595,0
49596,1
49597,1
49598,1
49599,3
49600,4
49601,1
49602,4
49603,2
49604,3
49605,0
49606,3
49607,0
49608,4
49609,1
49610,3
49611,1
49612,1
49613,1
49614,3
49615,3
49616,1
49617,1
49618,2
49619,3
49620,3
49621,3
49622,1
49623,1
49624,3
49625,3
49626,2
49627,2
49628,4
49629,2
49630,3
49631,3
49632,3
49633,1
49634,3
49635,2
49636,0
49637,0
49638,0
49639,2
49640,1
49641,0
49642,3
49643,2
49644,1
49645,1
49646,3
49647,2
49648,2
49649,2
49650,1
49651,4
49652,1
49653,3
49654,4
49655,4
49656,2
49657,2
49658,1
49659,3
49660,1
49661,4
49662,2
49663,3
49664,2
49665,3
49666,1
49667,1
49668,2
49669,1
49670,3
49671,3
49672,3
49673,1
49674,3
49675,1
49676,1
49677,1
49678,1
49679,3
49680,1
49681,1
49682,3
49683,4
49684,1
49685,1
49686,2
49687,2
49688,2
49689,3
49690,0
49691,4
49692,3
49693,2
49694,1
49695,2
49696,1
49697,1
49698,2
49699,1
49700,4
49701,1
49702,3
49703,0
49704,3
49705,1
49706,3
49707,1
49708,1
49709,1
49710,2
49711,2
49712,3
49713,1
49714,3
49715,0
49716,1
49717,1
49718,0
49719,3
49720,1
49721,3
49722,3
49723,0
49724,1
49725,1
49726,1
49727,4
49728,1
49729,1
49730,4
49731,0
49732,2
49733,2
49734,4
49735,0
49736,4
49737,2
49738,1
49739,3
49740,4
49741,3
49742,4
49743,3
49744,3
49745,0
49746,1
49747,2
49748,3
49749,2
49750,4
49751,2
49752,4
49753,0
49754,3
49755,1
49756,4
49757,1
49758,1
49759,4
49760,1
49761,0
49762,1
49763,0
49764,3
49765,2
49766,3
49767,2
49768,3
49769,3
49770,0
49771,4
49772,2
49773,1
49774,1
49775,1
49776,1
49777,1
49778,1
49779,1
49780,2
49781,2
49782,3
49783,3
49784,1
49785,1
49786,3
49787,4
49788,3
49789,1
49790,1
49791,1
49792,3
49793,1
49794,4
49795,0
49796,1
49797,3
49798,2
49799,2
49800,3
49801,3
49802,1
49803,3
49804,3
49805,0
49806,2
49807,3
49808,1
49809,4
49810,3
49811,2
49812,1
49813,4
49814,0
49815,2
49816,2
49817,3
49818,1
49819,3
49820,0
49821,1
49822,1
49823,3
49824,3
49825,3
49826,1
49827,1
49828,1
49829,3
49830,0
49831,4
49832,4
49833,1
49834,3
49835,3
49836,1
49837,2
49838,1
49839,1
49840,3
49841,2
49842,3
49843,3
49844,3
49845,0
49846,1
49847,0
49848,1
49849,4
49850,1
49851,1
49852,4
49853,3
49854,3
49855,2
49856,3
49857,1
49858,2
49859,3
49860,1
49861,2
49862,0
49863,3
49864,1
49865,2
49866,4
49867,3
49868,2
49869,4
49870,0
49871,3
49872,3
49873,0
49874,1
49875,1
49876,0
49877,0
49878,0
49879,3
49880,1
49881,2
49882,0
49883,1
49884,1
49885,1
49886,2
49887,4
49888,3
49889,1
49890,1
49891,1
49892,2
49893,0
49894,1
49895,4
49896,2
49897,1
49898,2
49899,2
49900,2
49901,3
49902,4
49903,2
49904,4
49905,1
49906,1
49907,0
49908,3
49909,1
49910,0
49911,3
49912,3
49913,2
49914,4
49915,2
49916,3
49917,3
49918,0
49919,2
49920,0
49921,4
49922,3
49923,2
49924,0
49925,4
49926,4
49927,1
49928,3
49929,2
49930,3
49931,2
49932,3
49933,1
49934,2
49935,2
49936,4
49937,3
49938,2
49939,1
49940,0
49941,1
49942,1
49943,2
49944,3
49945,3
49946,1
49947,3
49948,2
49949,2
49950,1
49951,3
49952,1
49953,2
49954,1
49955,1
49956,4
49957,1
49958,0
49959,1
49960,1
49961,1
49962,3
49963,4
49964,1
49965,1
49966,1
49967,3
49968,1
49969,3
49970,2
49971,1
49972,1
49973,2
49974,3
49975,3
49976,3
49977,1
49978,2
49979,2
49980,2
49981,0
49982,1
49983,2
49984,1
49985,0
49986,3
49987,3
49988,1
49989,0
49990,3
49991,2
49992,2
49993,0
49994,0
49995,2
49996,1
49997,4
49998,3
49999,3
50000,4
50001,1
50002,1
50003,1
50004,0
50005,2
50006,3
50007,1
50008,1
50009,3
50010,4
50011,1
50012,1
50013,0
50014,0
50015,1
50016,0
50017,1
50018,1
50019,1
50020,1
50021,2
50022,3
50023,2
50024,2
50025,4
50026,4
50027,1
50028,2
50029,4
50030,4
50031,1
50032,3
50033,1
50034,2
50035,3
50036,3
50037,4
50038,3
50039,0
50040,1
50041,3
50042,4
50043,1
50044,0
50045,1
50046,1
50047,3
50048,1
50049,1
50050,1
50051,1
50052,1
50053,3
50054,2
50055,1
50056,2
50057,3
50058,3
50059,1
50060,2
50061,1
50062,2
50063,1
50064,1
50065,4
50066,2
50067,3
50068,4
50069,0
50070,3
50071,1
50072,0
50073,1
50074,2
50075,2
50076,3
50077,1
50078,4
50079,1
50080,4
50081,2
50082,3
50083,1
50084,4
50085,1
50086,1
50087,1
50088,1
50089,2
50090,3
50091,3
50092,3
50093,4
50094,1
50095,1
50096,1
50097,2
50098,2
50099,1
50100,4
50101,2
50102,4
50103,0
50104,2
50105,0
50106,3
50107,2
50108,2
50109,1
50110,3
50111,3
50112,3
50113,4
50114,3
50115,1
50116,2
50117,4
50118,0
50119,1
50120,4
50121,2
50122,1
50123,1
50124,1
50125,3
50126,2
50127,3
50128,3
50129,1
50130,2
50131,1
50132,3
50133,1
50134,2
50135,1
50136,0
50137,1
50138,2
50139,4
50140,4
50141,2
50142,3
50143,3
50144,2
50145,3
50146,1
50147,3
50148,2
50149,1
50150,1
50151,4
50152,3
50153,3
50154,4
50155,1
50156,1
50157,3
50158,2
50159,2
50160,3
50161,3
50162,4
50163,2
50164,3
50165,3
50166,3
50167,2
50168,3
50169,1
50170,1
50171,1
50172,2
50173,3
50174,1
50175,2
50176,0
50177,4
50178,3
50179,1
50180,3
50181,2
50182,3
50183,3
50184,3
50185,3
50186,0
50187,3
50188,1
50189,3
50190,3
50191,3
50192,3
50193,1
50194,2
50195,3
50196,1
50197,3
50198,0
50199,3
50200,1
50201,2
50202,0
50203,3
50204,4
50205,1
50206,1
50207,2
50208,3
50209,3
50210,2
50211,3
50212,3
50213,1
50214,3
50215,3
50216,3
50217,1
50218,2
50219,3
50220,0
50221,1
50222,1
50223,3
50224,3
50225,2
50226,3
50227,3
50228,3
50229,3
50230,1
50231,4
50232,1
50233,3
50234,4
50235,1
50236,3
50237,0
50238,1
50239,3
50240,2
50241,3
50242,3
50243,1
50244,1
50245,2
50246,1
50247,0
50248,1
50249,1
50250,3
50251,2
50252,1
50253,3
50254,1
50255,1
50256,1
50257,2
50258,4
50259,1
50260,0
50261,1
50262,1
50263,1
50264,3
50265,3
50266,1
50267,3
50268,3
50269,1
50270,4
50271,3
50272,3
50273,3
50274,3
50275,1
50276,3
50277,3
50278,1
50279,2
50280,3
50281,3
50282,4
50283,1
50284,2
50285,3
50286,1
50287,1
50288,3
50289,2
50290,4
50291,1
50292,1
50293,2
50294,4
50295,0
50296,3
50297,3
50298,2
50299,3
50300,0
50301,3
50302,3
50303,3
50304,4
50305,1
50306,1
50307,1
50308,1
50309,2
50310,2
50311,3
50312,2
50313,1
50314,2
50315,3
50316,4
50317,0
50318,4
50319,3
50320,0
50321,0
50322,2
50323,3
50324,1
50325,1
50326,2
50327,3
50328,1
50329,4
50330,3
50331,0
50332,3
50333,3
50334,0
50335,3
50336,2
50337,4
50338,1
50339,1
50340,2
50341,1
50342,2
50343,1
50344,1
50345,1
50346,1
50347,4
50348,1
50349,0
50350,3
50351,3
50352,1
50353,2
50354,3
50355,3
50356,3
50357,2
50358,4
50359,4
50360,3
50361,1
50362,4
50363,1
50364,1
50365,3
50366,2
50367,3
50368,2
50369,1
50370,3
50371,1
50372,1
50373,3
50374,2
50375,1
50376,0
50377,4
50378,2
50379,4
50380,0
50381,3
50382,0
50383,0
50384,2
50385,2
50386,3
50387,4
50388,3
50389,3
50390,3
50391,1
50392,2
50393,3
50394,3
50395,2
50396,2
50397,1
50398,0
50399,3
50400,3
50401,1
50402,4
50403,2
50404,3
50405,0
50406,1
50407,1
50408,2
50409,3
50410,2
50411,0
50412,1
50413,1
50414,3
50415,3
50416,1
50417,2
50418,3
50419,1
50420,3
50421,3
50422,3
50423,1
50424,3
50425,1
50426,1
50427,2
50428,3
50429,4
50430,1
50431,2
50432,2
50433,0
50434,1
50435,4
50436,2
50437,3
50438,4
50439,2
50440,1
50441,3
50442,3
50443,1
50444,3
50445,0
50446,3
50447,4
50448,3
50449,0
50450,3
50451,0
50452,1
50453,1
50454,3
50455,3
50456,3
50457,4
50458,3
50459,4
50460,3
50461,2
50462,3
50463,0
50464,1
50465,4
50466,2
50467,1
50468,3
50469,1
50470,1
50471,1
50472,3
50473,1
50474,3
50475,3
50476,3
50477,2
50478,2
50479,2
50480,2
50481,1
50482,1
50483,2
50484,2
50485,1
50486,3
50487,1
50488,0
50489,1
50490,2
50491,1
50492,2
50493,1
50494,3
50495,1
50496,3
50497,3
50498,3
50499,1
50500,1
50501,3
50502,1
50503,3
50504,1
50505,4
50506,2
50507,4
50508,3
50509,3
50510,0
50511,2
50512,3
50513,1
50514,2
50515,4
50516,0
50517,1
50518,2
50519,2
50520,0
50521,3
50522,3
50523,0
50524,1
50525,3
50526,4
50527,1
50528,2
50529,0
50530,2
50531,3
50532,2
50533,1
50534,3
50535,2
50536,2
50537,3
50538,1
50539,3
50540,0
50541,2
50542,1
50543,3
50544,2
50545,3
50546,1
50547,4
50548,3
50549,1
50550,0
50551,2
50552,2
50553,2
50554,3
50555,2
50556,1
50557,1
50558,1
50559,3
50560,3
50561,2
50562,3
50563,0
50564,3
50565,4
50566,3
50567,1
50568,3
50569,3
50570,1
50571,3
50572,2
50573,1
50574,0
50575,3
50576,1
50577,3
50578,1
50579,3
50580,2
50581,1
50582,0
50583,1
50584,1
50585,3
50586,1
50587,2
50588,1
50589,1
50590,1
50591,2
50592,3
50593,1
50594,3
50595,0
50596,2
50597,0
50598,2
50599,1
50600,1
50601,1
50602,2
50603,3
50604,3
50605,1
50606,4
50607,1
50608,3
50609,1
50610,1
50611,3
50612,3
50613,1
50614,0
50615,1
50616,3
50617,4
50618,4
50619,3
50620,3
50621,2
50622,3
50623,1
50624,0
50625,4
50626,0
50627,1
50628,1
50629,0
50630,1
50631,3
50632,1
50633,1
50634,1
50635,3
50636,0
50637,4
50638,3
50639,2
50640,3
50641,0
50642,1
50643,3
50644,1
50645,2
50646,0
50647,0
50648,2
50649,1
50650,1
50651,1
50652,1
50653,1
50654,3
50655,3
50656,1
50657,1
50658,3
50659,2
50660,4
50661,3
50662,1
50663,1
50664,1
50665,1
50666,1
50667,1
50668,1
50669,2
50670,4
50671,1
50672,3
50673,3
50674,3
50675,1
50676,2
50677,3
50678,2
50679,3
50680,2
50681,0
50682,0
50683,1
50684,4
50685,3
50686,1
50687,3
50688,1
50689,3
50690,4
50691,2
50692,1
50693,3
50694,1
50695,2
50696,3
50697,0
50698,1
50699,0
50700,1
50701,4
50702,1
50703,2
50704,0
50705,3
50706,1
50707,4
50708,1
50709,3
50710,1
50711,1
50712,4
50713,2
50714,3
50715,3
50716,1
50717,4
50718,3
50719,4
50720,1
50721,0
50722,1
50723,1
50724,0
50725,1
50726,1
50727,2
50728,1
50729,2
50730,2
50731,1
50732,1
50733,1
50734,4
50735,2
50736,3
50737,3
50738,1
50739,1
50740,2
50741,3
50742,1
50743,0
50744,3
50745,4
50746,4
50747,0
50748,2
50749,1
50750,2
50751,1
50752,4
50753,0
50754,1
50755,1
50756,1
50757,1
50758,3
50759,1
50760,2
50761,3
50762,2
50763,3
50764,1
50765,1
50766,0
50767,3
50768,2
50769,3
50770,4
50771,1
50772,4
50773,3
50774,1
50775,3
50776,1
50777,1
50778,1
50779,1
50780,1
50781,0
50782,0
50783,0
50784,4
50785,1
50786,1
50787,2
50788,1
50789,0
50790,3
50791,3
50792,3
50793,0
50794,3
50795,2
50796,3
50797,0
50798,2
50799,0
50800,1
50801,3
50802,1
50803,2
50804,0
50805,4
50806,3
50807,1
50808,3
50809,3
50810,4
50811,2
50812,1
50813,1
50814,1
50815,3
50816,1
50817,1
50818,1
50819,4
50820,4
50821,1
50822,1
50823,2
50824,2
50825,3
50826,3
50827,3
50828,3
50829,0
50830,2
50831,4
50832,4
50833,2
50834,2
50835,1
50836,1
50837,3
50838,2
50839,1
50840,2
50841,2
50842,2
50843,1
50844,3
50845,3
50846,2
50847,1
50848,0
50849,1
50850,0
50851,3
50852,2
50853,2
50854,1
50855,1
50856,1
50857,0
50858,1
50859,2
50860,1
50861,0
50862,2
50863,0
50864,2
50865,3
50866,2
50867,3
50868,3
50869,3
50870,2
50871,3
50872,1
50873,3
50874,1
50875,0
50876,3
50877,1
50878,1
50879,0
50880,3
50881,0
50882,0
50883,1
50884,2
50885,2
50886,1
50887,0
50888,2
50889,1
50890,1
50891,3
50892,3
50893,2
50894,0
50895,2
50896,4
50897,1
50898,4
50899,1
50900,1
50901,0
50902,3
50903,3
50904,2
50905,2
50906,1
50907,1
50908,3
50909,3
50910,0
50911,4
50912,1
50913,4
50914,3
50915,1
50916,4
50917,3
50918,1
50919,1
50920,3
50921,1
50922,0
50923,1
50924,2
50925,2
50926,4
50927,3
50928,1
50929,0
50930,1
50931,1
50932,3
50933,1
50934,3
50935,1
50936,3
50937,2
50938,1
50939,1
50940,3
50941,3
50942,2
50943,3
50944,3
50945,2
50946,3
50947,3
50948,2
50949,3
50950,1
50951,3
50952,1
50953,1
50954,1
50955,4
50956,4
50957,3
50958,1
50959,2
50960,1
50961,1
50962,1
50963,0
50964,3
50965,1
50966,4
50967,1
50968,1
50969,1
50970,4
50971,4
50972,1
50973,2
50974,0
50975,1
50976,3
50977,1
50978,3
50979,3
50980,3
50981,4
50982,3
50983,0
50984,3
50985,1
50986,3
50987,0
50988,3
50989,0
50990,4
50991,0
50992,1
50993,2
50994,3
50995,4
50996,3
50997,4
50998,1
50999,1
51000,1
51001,1
51002,1
51003,0
51004,2
51005,3
51006,1
51007,4
51008,1
51009,2
51010,1
51011,3
51012,3
51013,0
51014,3
51015,3
51016,1
51017,3
51018,4
51019,1
51020,3
51021,2
51022,1
51023,4
51024,2
51025,0
51026,1
51027,0
51028,3
51029,3
51030,2
51031,1
51032,1
51033,3
51034,4
51035,4
51036,3
51037,2
51038,4
51039,1
51040,3
51041,1
51042,1
51043,2
51044,0
51045,1
51046,1
51047,4
51048,1
51049,3
51050,1
51051,1
51052,3
51053,3
51054,3
51055,1
51056,0
51057,1
51058,3
51059,3
51060,3
51061,3
51062,1
51063,2
51064,2
51065,4
51066,3
51067,1
51068,1
51069,2
51070,1
51071,2
51072,3
51073,2
51074,3
51075,1
51076,2
51077,0
51078,1
51079,1
51080,3
51081,0
51082,1
51083,3
51084,3
51085,2
51086,2
51087,1
51088,1
51089,2
51090,3
51091,1
51092,1
51093,2
51094,3
51095,3
51096,3
51097,3
51098,1
51099,2
51100,3
51101,1
51102,2
51103,2
51104,1
51105,3
51106,4
51107,1
51108,1
51109,1
51110,1
51111,3
51112,0
51113,2
51114,3
51115,1
51116,2
51117,3
51118,2
51119,0
51120,3
51121,0
51122,3
51123,0
51124,1
51125,3
51126,1
51127,3
51128,4
51129,1
51130,1
51131,3
51132,3
51133,3
51134,1
51135,1
51136,0
51137,3
51138,3
51139,2
51140,1
51141,1
51142,3
51143,3
51144,2
51145,3
51146,4
51147,3
51148,1
51149,3
51150,1
51151,1
51152,3
51153,1
51154,4
51155,4
51156,2
51157,2
51158,3
51159,3
51160,1
51161,4
51162,1
51163,2
51164,0
51165,3
51166,4
51167,3
51168,2
51169,0
51170,3
51171,0
51172,3
51173,3
51174,1
51175,0
51176,4
51177,1
51178,3
51179,3
51180,3
51181,2
51182,1
51183,2
51184,3
51185,2
51186,4
51187,3
51188,3
51189,1
51190,3
51191,3
51192,3
51193,1
51194,1
51195,4
51196,2
51197,2
51198,3
51199,1
51200,3
51201,1
51202,3
51203,3
51204,1
51205,1
51206,2
51207,1
51208,2
51209,2
51210,2
51211,0
51212,3
51213,3
51214,1
51215,2
51216,1
51217,0
51218,2
51219,3
51220,1
51221,4
51222,3
51223,3
51224,2
51225,2
51226,3
51227,2
51228,1
51229,3
51230,4
51231,3
51232,3
51233,2
51234,1
51235,3
51236,1
51237,2
51238,1
51239,0
51240,2
51241,1
51242,1
51243,1
51244,1
51245,3
51246,0
51247,3
51248,1
51249,3
51250,1
51251,1
51252,1
51253,1
51254,1
51255,2
51256,2
51257,3
51258,0
51259,1
51260,3
51261,1
51262,2
51263,3
51264,1
51265,1
51266,0
51267,1
51268,3
51269,3
51270,0
51271,1
51272,3
51273,1
51274,1
51275,1
51276,1
51277,3
51278,3
51279,0
51280,3
51281,3
51282,3
51283,4
51284,3
51285,3
51286,0
51287,2
51288,3
51289,1
51290,3
51291,2
51292,1
51293,1
51294,0
51295,0
51296,3
51297,1
51298,3
51299,3
51300,2
51301,3
51302,3
51303,1
51304,3
51305,2
51306,4
51307,2
51308,3
51309,2
51310,2
51311,2
51312,4
51313,1
51314,4
51315,3
51316,4
51317,1
51318,1
51319,2
51320,1
51321,0
51322,0
51323,3
51324,1
51325,1
51326,2
51327,1
51328,1
51329,0
51330,3
51331,1
51332,4
51333,4
51334,2
51335,3
51336,1
51337,1
51338,1
51339,1
51340,3
51341,1
51342,3
51343,3
51344,1
51345,2
51346,1
51347,3
51348,3
51349,2
51350,0
51351,0
51352,1
51353,1
51354,1
51355,2
51356,2
51357,2
51358,4
51359,4
51360,3
51361,1
51362,4
51363,2
51364,3
51365,4
51366,4
51367,2
51368,2
51369,3
51370,4
51371,3
51372,1
51373,1
51374,4
51375,2
51376,3
51377,1
51378,3
51379,3
51380,3
51381,2
51382,4
51383,4
51384,3
51385,1
51386,4
51387,1
51388,2
51389,2
51390,1
51391,2
51392,3
51393,1
51394,0
51395,1
51396,2
51397,1
51398,3
51399,1
51400,1
51401,0
51402,1
51403,3
51404,3
51405,4
51406,1
51407,3
51408,2
51409,4
51410,2
51411,3
51412,4
51413,3
51414,3
51415,1
51416,4
51417,1
51418,2
51419,1
51420,3
51421,1
51422,0
51423,3
51424,1
51425,2
51426,3
51427,3
51428,1
51429,1
51430,3
51431,0
51432,4
51433,1
51434,3
51435,3
51436,1
51437,3
51438,3
51439,2
51440,3
51441,0
51442,1
51443,1
51444,0
51445,1
51446,0
51447,1
51448,3
51449,1
51450,0
51451,3
51452,3
51453,3
51454,3
51455,1
51456,2
51457,1
51458,3
51459,0
51460,1
51461,4
51462,1
51463,3
51464,3
51465,2
51466,1
51467,1
51468,3
51469,1
51470,2
51471,3
51472,1
51473,3
51474,3
51475,3
51476,3
51477,1
51478,4
51479,2
51480,3
51481,3
51482,4
51483,0
51484,4
51485,2
51486,0
51487,0
51488,4
51489,3
51490,2
51491,3
51492,2
51493,3
51494,3
51495,4
51496,2
51497,4
51498,1
51499,2
51500,1
51501,3
51502,0
51503,0
51504,1
51505,3
51506,1
51507,3
51508,3
51509,3
51510,3
51511,2
51512,1
51513,4
51514,2
51515,1
51516,1
51517,3
51518,3
51519,3
51520,4
51521,2
51522,3
51523,2
51524,1
51525,2
51526,2
51527,1
51528,0
51529,2
51530,2
51531,3
51532,1
51533,1
51534,1
51535,3
51536,3
51537,2
51538,3
51539,1
51540,1
51541,3
51542,1
51543,2
51544,4
51545,3
51546,3
51547,0
51548,3
51549,3
51550,1
51551,2
51552,3
51553,3
51554,3
51555,3
51556,4
51557,3
51558,2
51559,2
51560,4
51561,1
51562,2
51563,1
51564,4
51565,3
51566,2
51567,4
51568,4
51569,3
51570,2
51571,0
51572,2
51573,3
51574,1
51575,2
51576,3
51577,1
51578,3
51579,3
51580,1
51581,1
51582,2
51583,1
51584,2
51585,1
51586,2
51587,4
51588,3
51589,1
51590,3
51591,1
51592,3
51593,3
51594,4
51595,2
51596,1
51597,2
51598,2
51599,3
51600,2
51601,1
51602,3
51603,4
51604,3
51605,1
51606,2
51607,1
51608,1
51609,1
51610,3
51611,3
51612,1
51613,3
51614,3
51615,1
51616,3
51617,4
51618,1
51619,1
51620,1
51621,4
51622,1
51623,1
51624,4
51625,3
51626,3
51627,3
51628,4
51629,0
51630,0
51631,2
51632,1
51633,3
51634,1
51635,2
51636,1
51637,2
51638,3
51639,1
51640,3
51641,0
51642,0
51643,1
51644,1
51645,2
51646,3
51647,1
51648,1
51649,4
51650,0
51651,4
51652,1
51653,3
51654,3
51655,1
51656,3
51657,1
51658,4
51659,1
51660,3
51661,3
51662,0
51663,2
51664,2
51665,2
51666,1
51667,1
51668,4
51669,2
51670,3
51671,1
51672,1
51673,1
51674,1
51675,1
51676,3
51677,1
51678,3
51679,0
51680,4
51681,1
51682,2
51683,3
51684,1
51685,0
51686,3
51687,1
51688,4
51689,2
51690,2
51691,4
51692,1
51693,2
51694,3
51695,1
51696,1
51697,0
51698,1
51699,2
51700,0
51701,1
51702,2
51703,3
51704,4
51705,2
51706,1
51707,2
51708,1
51709,0
51710,1
51711,3
51712,1
51713,3
51714,3
51715,3
51716,1
51717,1
51718,3
51719,3
51720,3
51721,3
51722,1
51723,4
51724,0
51725,2
51726,1
51727,1
51728,1
51729,0
51730,2
51731,2
51732,3
51733,3
51734,3
51735,3
51736,4
51737,1
51738,1
51739,3
51740,3
51741,2
51742,4
51743,1
51744,1
51745,2
51746,4
51747,1
51748,1
51749,3
51750,1
51751,3
51752,1
51753,4
51754,3
51755,2
51756,1
51757,3
51758,1
51759,4
51760,0
51761,2
51762,3
51763,1
51764,2
51765,3
51766,1
51767,1
51768,1
51769,1
51770,3
51771,3
51772,0
51773,0
51774,1
51775,4
51776,1
51777,0
51778,1
51779,0
51780,2
51781,4
51782,3
51783,3
51784,4
51785,3
51786,3
51787,1
51788,3
51789,3
51790,2
51791,1
51792,2
51793,0
51794,3
51795,1
51796,3
51797,3
51798,4
51799,0
51800,1
51801,3
51802,1
51803,0
51804,4
51805,1
51806,2
51807,2
51808,3
51809,2
51810,1
51811,3
51812,4
51813,2
51814,2
51815,1
51816,1
51817,1
51818,3
51819,2
51820,3
51821,3
51822,2
51823,2
51824,1
51825,0
51826,2
51827,2
51828,2
51829,2
51830,1
51831,1
51832,4
51833,0
51834,1
51835,3
51836,1
51837,3
51838,2
51839,1
51840,1
51841,2
51842,1
51843,1
51844,2
51845,3
51846,2
51847,1
51848,3
51849,1
51850,4
51851,3
51852,1
51853,0
51854,2
51855,1
51856,4
51857,2
51858,1
51859,4
51860,4
51861,4
51862,3
51863,2
51864,3
51865,1
51866,1
51867,1
51868,1
51869,2
51870,2
51871,1
51872,2
51873,1
51874,0
51875,3
51876,3
51877,0
51878,2
51879,2
51880,2
51881,3
51882,3
51883,1
51884,1
51885,1
51886,0
51887,1
51888,0
51889,1
51890,1
51891,2
51892,1
51893,3
51894,1
51895,2
51896,4
51897,3
51898,1
51899,3
51900,2
51901,3
51902,1
51903,0
51904,2
51905,3
51906,3
51907,0
51908,1
51909,1
51910,1
51911,3
51912,2
51913,3
51914,2
51915,3
51916,3
51917,3
51918,4
51919,0
51920,1
51921,0
51922,2
51923,4
51924,1
51925,1
51926,1
51927,3
51928,1
51929,1
51930,3
51931,3
51932,3
51933,1
51934,2
51935,3
51936,1
51937,3
51938,4
51939,1
51940,0
51941,4
51942,1
51943,2
51944,1
51945,0
51946,3
51947,0
51948,1
51949,1
51950,2
51951,2
51952,4
51953,4
51954,2
51955,3
51956,1
51957,1
51958,4
51959,0
51960,0
51961,2
51962,1
51963,3
51964,2
51965,1
51966,3
51967,4
51968,3
51969,3
51970,0
51971,1
51972,3
51973,2
51974,2
51975,4
51976,3
51977,3
51978,1
51979,3
51980,3
51981,1
51982,1
51983,4
51984,4
51985,0
51986,2
51987,1
51988,4
51989,1
51990,1
51991,3
51992,4
51993,1
51994,1
51995,3
51996,3
51997,3
51998,0
51999,3
52000,3
52001,2
52002,1
52003,2
52004,3
52005,3
52006,1
52007,3
52008,1
52009,1
52010,4
52011,1
52012,0
52013,1
52014,3
52015,2
52016,2
52017,0
52018,3
52019,1
52020,3
52021,2
52022,0
52023,1
52024,4
52025,2
52026,3
52027,1
52028,3
52029,1
52030,2
52031,1
52032,2
52033,1
52034,1
52035,1
52036,2
52037,2
52038,2
52039,3
52040,1
52041,2
52042,2
52043,3
52044,1
52045,1
52046,1
52047,4
52048,2
52049,3
52050,1
52051,4
52052,3
52053,1
52054,3
52055,1
52056,1
52057,3
52058,3
52059,1
52060,1
52061,3
52062,1
52063,2
52064,3
52065,3
52066,4
52067,0
52068,1
52069,3
52070,2
52071,1
52072,1
52073,0
52074,3
52075,4
52076,1
52077,1
52078,1
52079,3
52080,2
52081,2
52082,2
52083,4
52084,3
52085,3
52086,1
52087,2
52088,4
52089,0
52090,0
52091,3
52092,2
52093,0
52094,2
52095,1
52096,1
52097,3
52098,1
52099,1
52100,1
52101,3
52102,1
52103,1
52104,0
52105,4
52106,1
52107,3
52108,1
52109,0
52110,3
52111,1
52112,3
52113,1
52114,1
52115,3
52116,0
52117,4
52118,1
52119,1
52120,1
52121,4
52122,0
52123,1
52124,1
52125,2
52126,3
52127,3
52128,2
52129,1
52130,3
52131,2
52132,3
52133,3
52134,2
52135,1
52136,2
52137,1
52138,1
52139,1
52140,3
52141,4
52142,2
52143,3
52144,2
52145,0
52146,2
52147,2
52148,3
52149,4
52150,0
52151,1
52152,2
52153,1
52154,1
52155,3
52156,2
52157,3
52158,4
52159,3
52160,3
52161,2
52162,3
52163,2
52164,3
52165,1
52166,1
52167,1
52168,1
52169,1
52170,0
52171,1
52172,0
52173,2
52174,4
52175,3
52176,2
52177,1
52178,1
52179,3
52180,1
52181,1
52182,1
52183,0
52184,1
52185,2
52186,2
52187,0
52188,4
52189,4
52190,3
52191,1
52192,3
52193,3
52194,3
52195,3
52196,3
52197,0
52198,2
52199,4
52200,2
52201,4
52202,3
52203,0
52204,3
52205,3
52206,2
52207,1
52208,2
52209,1
52210,1
52211,3
52212,0
52213,1
52214,1
52215,2
52216,0
52217,1
52218,0
52219,0
52220,2
52221,1
52222,1
52223,3
52224,1
52225,3
52226,1
52227,3
52228,3
52229,0
52230,4
52231,3
52232,3
52233,2
52234,0
52235,3
52236,1
52237,4
52238,2
52239,1
52240,1
52241,4
52242,2
52243,1
52244,3
52245,4
52246,1
52247,2
52248,1
52249,3
52250,1
52251,1
52252,2
52253,1
52254,1
52255,1
52256,3
52257,2
52258,3
52259,1
52260,4
52261,2
52262,0
52263,2
52264,1
52265,2
52266,3
52267,1
52268,4
52269,3
52270,4
52271,2
52272,1
52273,1
52274,0
52275,1
52276,1
52277,1
52278,4
52279,3
52280,0
52281,1
52282,0
52283,1
52284,1
52285,1
52286,3
52287,3
52288,1
52289,2
52290,1
52291,2
52292,3
52293,4
52294,0
52295,1
52296,1
52297,1
52298,2
52299,0
52300,2
52301,1
52302,4
52303,2
52304,4
52305,2
52306,1
52307,0
52308,2
52309,3
52310,1
52311,3
52312,3
52313,1
52314,1
52315,3
52316,3
52317,2
52318,1
52319,3
52320,2
52321,4
52322,3
52323,3
52324,3
52325,0
52326,0
52327,0
52328,4
52329,1
52330,1
52331,2
52332,2
52333,1
52334,3
52335,0
52336,2
52337,0
52338,4
52339,3
52340,4
52341,2
52342,2
52343,2
52344,3
52345,2
52346,1
52347,2
52348,3
52349,2
52350,1
52351,4
52352,1
52353,3
52354,4
52355,1
52356,4
52357,3
52358,4
52359,3
52360,1
52361,2
52362,3
52363,3
52364,3
52365,2
52366,3
52367,1
52368,4
52369,3
52370,1
52371,2
52372,1
52373,2
52374,1
52375,1
52376,3
52377,4
52378,3
52379,3
52380,3
52381,3
52382,3
52383,1
52384,2
52385,3
52386,3
52387,1
52388,2
52389,1
52390,3
52391,0
52392,3
52393,3
52394,0
52395,3
52396,1
52397,1
52398,3
52399,1
52400,4
52401,1
52402,3
52403,4
52404,3
52405,2
52406,3
52407,2
52408,1
52409,0
52410,1
52411,3
52412,1
52413,1
52414,2
52415,2
52416,3
52417,2
52418,1
52419,2
52420,2
52421,3
52422,3
52423,1
52424,1
52425,3
52426,1
52427,4
52428,2
52429,2
52430,1
52431,3
52432,1
52433,0
52434,2
52435,2
52436,1
52437,4
52438,4
52439,3
52440,1
52441,1
52442,3
52443,3
52444,3
52445,4
52446,2
52447,2
52448,1
52449,1
52450,2
52451,3
52452,2
52453,1
52454,0
52455,1
52456,1
52457,4
52458,3
52459,1
52460,3
52461,1
52462,4
52463,3
52464,3
52465,3
52466,1
52467,4
52468,2
52469,2
52470,4
52471,3
52472,1
52473,2
52474,1
52475,1
52476,2
52477,2
52478,1
52479,1
52480,4
52481,4
52482,3
52483,1
52484,3
52485,0
52486,2
52487,1
52488,3
52489,0
52490,1
52491,3
52492,0
52493,3
52494,3
52495,4
52496,3
52497,2
52498,3
52499,1
52500,2
52501,1
52502,1
52503,2
52504,1
52505,3
52506,4
52507,1
52508,3
52509,3
52510,3
52511,3
52512,3
52513,3
52514,2
52515,3
52516,0
52517,3
52518,2
52519,3
52520,1
52521,2
52522,1
52523,3
52524,3
52525,2
52526,0
52527,3
52528,3
52529,1
52530,4
52531,0
52532,2
52533,1
52534,0
52535,1
52536,1
52537,1
52538,3
52539,3
52540,2
52541,3
52542,1
52543,3
52544,1
52545,3
52546,4
52547,2
52548,4
52549,2
52550,3
52551,4
52552,1
52553,1
52554,2
52555,3
52556,1
52557,3
52558,1
52559,1
52560,3
52561,3
52562,1
52563,1
52564,3
52565,1
52566,1
52567,1
52568,0
52569,2
52570,1
52571,2
52572,2
52573,1
52574,2
52575,4
52576,2
52577,2
52578,3
52579,1
52580,1
52581,4
52582,3
52583,1
52584,3
52585,3
52586,3
52587,2
52588,1
52589,4
52590,0
52591,3
52592,3
52593,1
52594,1
52595,2
52596,3
52597,0
52598,3
52599,1
52600,1
52601,3
52602,3
52603,0
52604,1
52605,1
52606,3
52607,1
52608,3
52609,1
52610,3
52611,3
52612,1
52613,2
52614,1
52615,2
52616,3
52617,3
52618,1
52619,1
52620,3
52621,0
52622,4
52623,3
52624,1
52625,3
52626,3
52627,2
52628,2
52629,4
52630,0
52631,0
52632,3
52633,1
52634,0
52635,3
52636,4
52637,2
52638,1
52639,1
52640,2
52641,3
52642,3
52643,3
52644,1
52645,3
52646,1
52647,2
52648,1
52649,1
52650,1
52651,1
52652,3
52653,4
52654,1
52655,2
52656,3
52657,3
52658,3
52659,1
52660,1
52661,2
52662,1
52663,1
52664,4
52665,2
52666,3
52667,1
52668,1
52669,0
52670,3
52671,0
52672,4
52673,1
52674,0
52675,3
52676,3
52677,3
52678,1
52679,1
52680,1
52681,3
52682,0
52683,4
52684,2
52685,3
52686,3
52687,3
52688,1
52689,2
52690,2
52691,2
52692,1
52693,3
52694,3
52695,2
52696,3
52697,0
52698,3
52699,1
52700,1
52701,3
52702,3
52703,0
52704,4
52705,3
52706,3
52707,2
52708,1
52709,1
52710,2
52711,1
52712,1
52713,3
52714,2
52715,2
52716,3
52717,3
52718,4
52719,1
52720,3
52721,3
52722,3
52723,1
52724,3
52725,2
52726,2
52727,3
52728,3
52729,3
52730,3
52731,4
52732,1
52733,3
52734,1
52735,2
52736,1
52737,2
52738,2
52739,1
52740,2
52741,3
52742,2
52743,3
52744,4
52745,0
52746,1
52747,4
52748,3
52749,1
52750,2
52751,4
52752,3
52753,2
52754,0
52755,3
52756,3
52757,1
52758,4
52759,0
52760,3
52761,2
52762,4
52763,3
52764,1
52765,4
52766,1
52767,1
52768,1
52769,4
52770,0
52771,2
52772,2
52773,4
52774,4
52775,3
52776,1
52777,3
52778,3
52779,1
52780,2
52781,1
52782,0
52783,2
52784,2
52785,1
52786,2
52787,3
52788,1
52789,3
52790,2
52791,1
52792,1
52793,4
52794,3
52795,1
52796,3
52797,3
52798,1
52799,3
52800,2
52801,3
52802,3
52803,3
52804,4
52805,4
52806,1
52807,1
52808,2
52809,1
52810,3
52811,1
52812,3
52813,0
52814,1
52815,2
52816,1
52817,4
52818,0
52819,1
52820,3
52821,3
52822,4
52823,0
52824,2
52825,3
52826,3
52827,1
52828,3
52829,1
52830,3
52831,3
52832,0
52833,1
52834,1
52835,0
52836,3
52837,3
52838,4
52839,4
52840,2
52841,1
52842,1
52843,1
52844,4
52845,1
52846,2
52847,1
52848,3
52849,1
52850,3
52851,3
52852,1
52853,3
52854,2
52855,2
52856,3
52857,0
52858,2
52859,3
52860,3
52861,2
52862,1
52863,2
52864,2
52865,1
52866,1
52867,4
52868,0
52869,1
52870,2
52871,1
52872,3
52873,1
52874,3
52875,1
52876,4
52877,3
52878,2
52879,3
52880,0
52881,1
52882,2
52883,1
52884,1
52885,2
52886,3
52887,0
52888,1
52889,1
52890,2
52891,3
52892,3
52893,3
52894,1
52895,4
52896,1
52897,1
52898,2
52899,3
52900,4
52901,3
52902,1
52903,3
52904,3
52905,3
52906,3
52907,1
52908,1
52909,1
52910,1
52911,4
52912,3
52913,3
52914,1
52915,3
52916,3
52917,0
52918,1
52919,1
52920,3
52921,0
52922,3
52923,1
52924,3
52925,1
52926,4
52927,1
52928,1
52929,0
52930,4
52931,1
52932,3
52933,4
52934,1
52935,0
52936,1
52937,3
52938,4
52939,4
52940,3
52941,4
52942,4
52943,3
52944,4
52945,4
52946,1
52947,0
52948,1
52949,1
52950,1
52951,1
52952,3
52953,0
52954,1
52955,1
52956,0
52957,3
52958,0
52959,3
52960,1
52961,1
52962,3
52963,1
52964,3
52965,1
52966,3
52967,1
52968,4
52969,1
52970,4
52971,4
52972,3
52973,0
52974,3
52975,3
52976,0
52977,3
52978,1
52979,1
52980,3
52981,4
52982,2
52983,4
52984,3
52985,2
52986,3
52987,2
52988,1
52989,4
52990,3
52991,1
52992,3
52993,1
52994,3
52995,2
52996,1
52997,1
52998,0
52999,1
53000,0
53001,3
53002,1
53003,4
53004,1
53005,3
53006,4
53007,2
53008,2
53009,4
53010,3
53011,3
53012,1
53013,4
53014,1
53015,3
53016,3
53017,4
53018,0
53019,2
53020,1
53021,1
53022,1
53023,3
53024,1
53025,0
53026,1
53027,4
53028,2
53029,0
53030,3
53031,4
53032,0
53033,3
53034,2
53035,3
53036,1
53037,3
53038,0
53039,3
53040,1
53041,1
53042,3
53043,4
53044,2
53045,2
53046,1
53047,3
53048,0
53049,2
53050,3
53051,4
53052,1
53053,3
53054,3
53055,1
53056,4
53057,3
53058,2
53059,4
53060,2
53061,3
53062,2
53063,1
53064,3
53065,3
53066,0
53067,2
53068,3
53069,0
53070,4
53071,3
53072,1
53073,2
53074,2
53075,1
53076,2
53077,2
53078,2
53079,1
53080,0
53081,1
53082,3
53083,3
53084,3
53085,1
53086,1
53087,1
53088,2
53089,4
53090,3
53091,2
53092,3
53093,0
53094,2
53095,3
53096,4
53097,3
53098,3
53099,3
53100,1
53101,1
53102,2
53103,3
53104,3
53105,3
53106,1
53107,3
53108,1
53109,1
53110,3
53111,1
53112,0
53113,0
53114,3
53115,3
53116,1
53117,1
53118,3
53119,3
53120,2
53121,2
53122,2
53123,2
53124,3
53125,3
53126,1
53127,2
53128,1
53129,2
53130,1
53131,1
53132,0
53133,1
53134,2
53135,1
53136,1
53137,1
53138,3
53139,2
53140,2
53141,4
53142,2
53143,3
53144,2
53145,2
53146,1
53147,4
53148,2
53149,1
53150,2
53151,3
53152,4
53153,4
53154,2
53155,1
53156,1
53157,2
53158,1
53159,1
53160,2
53161,3
53162,3
53163,4
53164,1
53165,2
53166,1
53167,2
53168,3
53169,2
53170,2
53171,1
53172,3
53173,2
53174,0
53175,3
53176,2
53177,1
53178,1
53179,1
53180,1
53181,0
53182,1
53183,1
53184,3
53185,2
53186,3
53187,2
53188,2
53189,4
53190,1
53191,4
53192,3
53193,1
53194,0
53195,1
53196,2
53197,1
53198,3
53199,1
53200,1
53201,0
53202,3
53203,4
53204,1
53205,1
53206,3
53207,3
53208,1
53209,1
53210,2
53211,3
53212,1
53213,0
53214,3
53215,3
53216,3
53217,1
53218,2
53219,0
53220,3
53221,4
53222,2
53223,3
53224,1
53225,2
53226,3
53227,3
53228,3
53229,1
53230,4
53231,1
53232,0
53233,1
53234,4
53235,0
53236,2
53237,1
53238,2
53239,0
53240,3
53241,2
53242,3
53243,2
53244,4
53245,1
53246,3
53247,1
53248,1
53249,2
53250,2
53251,3
53252,2
53253,1
53254,3
53255,2
53256,4
53257,3
53258,0
53259,2
53260,0
53261,1
53262,1
53263,2
53264,3
53265,0
53266,0
53267,1
53268,1
53269,1
53270,1
53271,1
53272,3
53273,3
53274,1
53275,3
53276,4
53277,3
53278,2
53279,3
53280,1
53281,3
53282,3
53283,2
53284,1
53285,4
53286,3
53287,4
53288,3
53289,4
53290,1
53291,3
53292,3
53293,3
53294,3
53295,1
53296,3
53297,2
53298,1
53299,0
53300,1
53301,1
53302,3
53303,0
53304,1
53305,3
53306,0
53307,4
53308,0
53309,1
53310,1
53311,3
53312,4
53313,1
53314,3
53315,1
53316,0
53317,3
53318,2
53319,1
53320,1
53321,2
53322,1
53323,4
53324,3
53325,4
53326,3
53327,1
53328,4
53329,1
53330,1
53331,2
53332,0
53333,3
53334,1
53335,0
53336,1
53337,1
53338,4
53339,1
53340,1
53341,3
53342,1
53343,3
53344,1
53345,4
53346,1
53347,2
53348,1
53349,3
53350,2
53351,3
53352,3
53353,3
53354,4
53355,0
53356,4
53357,1
53358,3
53359,2
53360,3
53361,4
53362,4
53363,1
53364,3
53365,4
53366,3
53367,3
53368,2
53369,4
53370,3
53371,4
53372,4
53373,1
53374,4
53375,3
53376,1
53377,2
53378,4
53379,4
53380,4
53381,4
53382,1
53383,2
53384,4
53385,0
53386,4
53387,2
53388,3
53389,0
53390,3
53391,2
53392,3
53393,1
53394,2
53395,1
53396,0
53397,3
53398,2
53399,3
53400,1
53401,1
53402,2
53403,1
53404,0
53405,3
53406,3
53407,1
53408,2
53409,2
53410,1
53411,0
53412,2
53413,2
53414,1
53415,1
53416,1
53417,1
53418,3
53419,2
53420,4
53421,2
53422,2
53423,3
53424,3
53425,2
53426,0
53427,1
53428,4
53429,1
53430,3
53431,2
53432,2
53433,2
53434,2
53435,3
53436,1
53437,4
53438,4
53439,4
53440,2
53441,4
53442,4
53443,2
53444,4
53445,1
53446,1
53447,2
53448,1
53449,1
53450,1
53451,2
53452,3
53453,1
53454,2
53455,2
53456,4
53457,1
53458,3
53459,0
53460,2
